…
I continued the shooting decision model by fitting the empirical data in study 3 in Pleskac,
Cesario and Johnson (2017). First I loaded the empirical data. Then I loaded the model
object and prior distributions that had set up in the previous tutorial.

```
require(ggdmc)
load("data/race/study3.rda")
load("data/race/shoot-decision-recovery.rda")

study3_subset <- study3[, c("s", "S", "RACE", "R", "RT")]
dplyr::tbl_df(study3_subset)

## A tibble: 12,033 x 5
##     s     S     RACE   R     RT
##    <fct> <fct> <fct> <fct> <dbl>
##  1 11    gun   black not   0.753
##  2 11    non   white shoot 0.851
##  3 11    gun   black not   0.742
##  4 11    non   white shoot 0.636
##  5 11    gun   black shoot 0.644
##  6 11    non   black not   0.625
##  7 11    non   white shoot 0.889
##  8 11    gun   black not   0.597
##  9 11    gun   white not   0.724
## 10 11    non   white shoot 0.656
## ... with 12,023 more rows
```
…
