Simulation | Cognitive Models
…
set.seed(123)  ## Set seed to get the same simulation
dat <- simulate(model, nsim = 1, ps = p.vector)
##    S  R        RT
## 1 s1 r1 0.3327392
## 2 s2 r1 0.3797985

The following simulates 500 observations per condition. So in total,
there are 1000 observations.

ntrial <- 5e2  ## number of trials per condition
dat <- simulate(model, nsim = ntrial, ps = p.vector)
dplyr::tbl_df(dat)
##  A tibble: 1,000 x 3
##    S     R        RT
##    <fct> <fct> <dbl>
##  1 s1    r2    0.533
##  2 s1    r2    0.494
##  3 s1    r1    0.497
##  4 s1    r2    0.310
##  5 s1    r1    0.462
##  6 s1    r2    0.345
##  7 s1    r2    0.430
##  8 s1    r1    0.384
##  9 s1    r2    0.310
## 10 s1    r1    0.302
# # ... with 990 more rows
…
