HDDM | Cognitive Models
…
In the hierarchical case of the parameter recovery study, my aim
is to recover not only ps matrix, but also the data generating
mechanism.  That is, I also want to known pop.mean,
pop.scale and their marginal distribution.
Note ps is a matrix, storing the true values for each
DDM parameter. That is, the simulate function randomly selects nsub
set of true parameters based on the prior distribution, pop.prior. 
Each row of the ps matrix represents one parameter vector of a participant.

  tibble::as_tibble(ps)

## A tibble: 40 x 7
##        a  v.f1  v.f2     z    sz    sv    t0
##    <dbl> <dbl> <dbl> <dbl> <dbl> <dbl> <dbl>
##  1  2.93  4.30  2.95 0.486 0.151 0.775 0.304
##  2  1.52  3.74  2.40 0.589 0.258 0.809 0.340
##  3  1.85  4.31  2.62 0.636 0.318 0.903 0.349
##  4  2.34  3.94  2.53 0.578 0.127 0.993 0.283
##  5  2.44  4.50  2.68 0.566 0.246 0.589 0.261
##  6  2.73  4.08  3.68 0.465 0.182 0.973 0.290
##  7  2.34  2.89  3.69 0.742 0.307 0.592 0.325
##  8  1.90  4.35  3.56 0.512 0.186 0.513 0.309
##  9  2.60  4.18  2.81 0.541 0.367 0.758 0.270
## 10  1.64  3.77  2.37 0.596 0.286 0.995 0.375
##  with 30 more rows
…
