Shooting Decision Model - Empirical Data | Cognitive Models
…
				Shooting Decision Model - Empirical Data

				I continued the shooting decision model by fitting the empirical data in study 1 in Pleskac,
Cesario and Johnson (2017). First I started from the pre-processing of the data. The aim
of the pre-process is to replicate their behaviour analysis, so I can be sure that
my data pre-processing is in line with theirs.

First, I used a combination of sapply and table functions to check all coding
numbers in the categorical variables / columns.

require(ggdmc)
dat <- fread("data/race/Study1TrialData.csv")
dplyr::tbl_df(dat)
##  A tibble: 5,600 x 11
##    subject race0W1B object0NG1G conditionRaceObj conditionRace    rt resp0DS1S
##      <int>    <int>       <int>            <int>         <int> <dbl>     <dbl>
##  1       1        1           1                4             2   464         1
##  2       1        1           0                2             2   658         0
##  3       1        1           1                4             2   776         1
##  4       1        0           1                3             1   646         1
##  5       1        0           0                1             1   624         0
##  6       1        0           1                3             1   518         1
##  7       1        1           0                2             2   678         0
##  8       1        0           1                3             1   511         1
##  9       1        0           0                1             1   602         1
## 10       1        1           1                4             2   808         1
##  ... with 5,590 more rows, and 4 more variables: diffusionRT <dbl>, ybin <int>,
##    lowerLim <dbl>, upperLim <dbl>
…
png("figs/race/fig3.png", 800, 600)
grid.arrange(p1, p2, ncol = 1)
dev.off()

save(dat, d, file = "data/race/study1.rda")

load("data/race/study1.rda")

load("data/race/shoot-decision-recovery.rda")

study3_subset <- study3[, c("s", "S", "RACE", "R", "RT")]
dplyr::tbl_df(study3_subset)

## A tibble: 12,033 x 5
##     s     S     RACE   R     RT
##    <fct> <fct> <fct> <fct> <dbl>
##  1 11    gun   black not   0.753
##  2 11    non   white shoot 0.851
##  3 11    gun   black not   0.742
##  4 11    non   white shoot 0.636
##  5 11    gun   black shoot 0.644
##  6 11    non   black not   0.625
##  7 11    non   white shoot 0.889
##  8 11    gun   black not   0.597
##  9 11    gun   white not   0.724
## 10 11    non   white shoot 0.656
## ... with 12,023 more rows
…
