…
> match.map = list(M = list(left = "LEFT", right = "RIGHT")),

> responses = c("LEFT", "RIGHT"),

Note again I differentiate uppercase and lowercase letters. So in a 
data frame (a terminology of R language), there will be two columns, storing
the S and R factors:

```
dplyr::tbl_df(dat1)
## # A tibble: 32,768 x 3
##      S     R      RT
##    <fct> <fct> <dbl>
##  1 left  LEFT  0.209
##  2 left  RIGHT 0.384
##  3 left  LEFT  1.30 
##  4 left  LEFT  0.322
##  5 left  LEFT  0.219
##  6 left  LEFT  0.473
##  7 left  LEFT  0.247
##  8 left  LEFT  0.213
##  9 left  RIGHT 0.451
## 10 left  LEFT  0.391
## # ... with 32,758 more rows
```
…
