Shooting Decision Model - Recovery Study | Cognitive Models
…
As usual, I want to visually check if the assumed mechanism is reasonable.

plot(pop.prior)

I loaded the empirical data to see the trial number and participant number
in the empirical data.

load("data/race/study3.rda")
dplyr::tbl_df(study3)
## A tibble: 12,033 x 7
##       RT     S     B     CT   RACE  R     s
##    <dbl> <fct> <fct>  <fct>  <fct> <fct> <fct>
##  1 0.753   gun  blur   safe  black not     11
##  2 0.851   non  blur   safe  white shoot   11
##  3 0.742   gun  clear  safe  black not     11
##  4 0.636   non  clear  safe  white shoot   11
##  5 0.644   gun  blur   safe  black shoot   11
##  6 0.625   non  clear  safe  black not     11
##  7 0.889   non  clear  safe  white shoot   11
##  8 0.597   gun  blur   safe  black not     11
##  9 0.724   gun  clear  safe  white not     11
## 10 0.656   non  blur   safe  white shoot   11
## ... with 12,023 more rows
…
