Hierarchical LBA Model | Cognitive Models
…
mean_v = c(“F”, “M”), refers to that the mean of the drift rate is
affected by the F and M factors. The former is an experimental factor and
the latter is a latent LBA specific factor. B = “R” refers to that
the travel distance parameter is affected by the response factor, which in
a binary decision task, is two levels. Here it is either “r1” or “r2”, defined
in the response option / argument.

  responses = c(“r1”, “r2”),

Therefore, the data.frame (an R way to store real or simulated data ) should
have an R column, similar to the below:

> dplyr::tbl_df(dat)
# A tibble: 40,000 x 5
   s     S     F     R        RT
   <fct> <fct> <fct> <fct> <dbl>
 1 1     s1    f1    r1    0.745
 2 1     s1    f1    r1    0.883
 3 1     s1    f1    r1    0.884
 4 1     s1    f1    r1    0.678
 5 1     s1    f1    r1    0.729
 6 1     s1    f1    r1    0.803
 7 1     s1    f1    r1    0.735
 8 1     s1    f1    r1    0.756
 9 1     s1    f1    r1    0.847
10 1     s1    f1    r1    0.855
# ... with 39,990 more rows
…
