Descriptive Statistics | Cognitive Models
…
d[, c("s", "S", "R", "RT", "C") := list(s, S, R, RTSec, C)]

The result was then returned to the lapply function as its output. := is
just the assignment symbol in data.table syntax.

return(d[, c("s", "S", "R", "RT", "C") := list(s, S, R, RTSec, C)])

Each participant file was looped through in a fastest possible way in
R language and finally, each of them was glued together via the data.table
function, rbindlist, which return as the output for my homemade DTLapply
function.

## # A tibble: 60,160 x 13
##    block trial target   CO1   CO2    ST  resp    RT correct s     S         R
##    <int> <int> <chr>  <int> <int> <dbl> <int> <dbl>   <int> <chr> <chr> <int>
##  1     1     1 R         50    -1    -1     1 1.08        1 S125  R         1
##  2     1     2 L         50    -1    -1     0 0.733       1 S125  L         0
##  3     1     3 R         50    -1    -1     1 0.637       1 S125  R         1
##  4     1     4 R         50    -1    -1     1 0.517       1 S125  R         1
##  5     1     5 L         50    -1    -1     0 0.476       1 S125  L         0
##  6     1     6 R         50    -1    -1     1 0.419       1 S125  R         1
##  7     1     7 R         50    -1    -1     1 0.493       1 S125  R         1
##  8     1     8 R         50    -1    -1     1 0.486       1 S125  R         1
##  9     1     9 L         50    -1    -1     0 0.685       1 S125  L         0
## 10     1    10 L         50    -1    -1     0 0.581       1 S125  L         0
## # ... with 60,150 more rows, and 1 more variable: C <int>
…
