Multiple Participants | Cognitive Models
…
## Simulate some data
dat <- simulate(model, nsim = 30, nsub = 8, prior = pop.prior)
dmi <- BuildDMI(dat, model)
dplyr::tbl_df(dat)
## # A tibble: 960 x 5
##    s     S     F     R        RT
##    <fct> <fct> <fct> <fct> <dbl>
##  1 1     s1    f1    r1    0.438
##  2 1     s1    f1    r1    0.517
##  3 1     s1    f1    r1    0.407
##  4 1     s1    f1    r1    0.454
##  5 1     s1    f1    r1    0.449
##  6 1     s1    f1    r1    0.463
##  7 1     s1    f1    r1    0.552
##  8 1     s1    f1    r1    0.411
##  9 1     s1    f1    r1    0.387
## 10 1     s1    f1    r1    0.486
## # ... with 950 more rows
…
