…
```
model <- BuildModel(
  p.map     = list(a = "1", v = "1", z = "1", d = "1", sz = "1", sv = "1",
                   t0 = "1", st0 = "1"),
  match.map = list(M = list(s1 = "r1", s2 = "r2")),
  factors   = list(S = c("s1", "s2")),
  responses = c("r1", "r2"),
  constants = c(st0 = 0, d = 0),
  type      = "rd")

p.vector <- c(a = 1, v = 1.2, z = .38, sz = .25, sv = .2, t0 = .15)
ntrial <- 1e2
dat <- simulate(model, nsim = ntrial, ps = p.vector)
dmi <- BuildDMI(dat, model)
## A tibble: 200 x 3     ## use dplyr::tbl_df(dat) to print this
##    S     R        RT
##    <fct> <fct> <dbl>
##  1 s1    r1    0.249
##  2 s1    r1    0.246
##  3 s1    r2    0.262
##  4 s1    r1    0.519
##  5 s1    r1    0.205
##  6 s1    r1    0.177
##  7 s1    r1    0.174
##  8 s1    r1    0.378
##  9 s1    r1    0.197
## 10 s1    r1    0.224
##  ... with 190 more rows
…
