Random effect logistic regression | Cognitive Models
…
d <- data.table(S = dat$S, N = dat$N, P = dat$S/dat$N, X1= dat$X1, X2 = dat$X2)
dplyr::tbl_df(d)
d$s <- factor(1:dat$Ns)
## A tibble: 21 x 7
##        S     N     P    X1    X2   logit s
##    <dbl> <dbl> <dbl> <dbl> <dbl>   <dbl> <fct>
##  1    10    39 0.256     0     0 -1.06   1
##  2    23    62 0.371     0     0 -0.528  2
##  3    23    81 0.284     0     0 -0.925  3
##  4    26    51 0.510     0     0  0.0392 4 
##  5    17    39 0.436     0     0 -0.258  5
##  6     5     6 0.833     0     1  1.61   6 
##  7    53    74 0.716     0     1  0.926  7
##  8    55    72 0.764     0     1  1.17   8
##  9    32    51 0.627     0     1  0.521  9 
## 10    46    79 0.582     0     1  0.332  10
## ... with 11 more rows
…
