Summary Statistics | Cognitive Models
…
## scoring a correctness column
d$C <- ifelse(d$S == "gun" & d$R == "shoot", TRUE,
       ifelse(d$S == "non" & d$R == "not",   TRUE,
       ifelse(d$S == "gun" & d$R == "not",   FALSE,
       ifelse(d$S == "non" & d$R == "shoot", FALSE, NA))))

Now the data table looks like:

dplyr::tbl_df(d)
## # A tibble: 12,033 x 8
##       RT S     BC    CT    RACE  R     s     C
##    <dbl> <fct> <fct> <fct> <fct> <fct> <fct> <lgl>
##  1 0.753 gun   blur  safe  black shoot 11    TRUE
##  2 0.851 non   blur  safe  white not   11    TRUE
##  3 0.742 gun   clear safe  black shoot 11    TRUE
##  4 0.636 non   clear safe  white not   11    TRUE
##  5 0.644 gun   blur  safe  black not   11    FALSE
##  6 0.625 non   clear safe  black shoot 11    FALSE
##  7 0.889 non   clear safe  white not   11    TRUE
##  8 0.597 gun   blur  safe  black shoot 11    TRUE
##  9 0.724 gun   clear safe  white shoot 11    TRUE
## 10 0.656 non   blur  safe  white not   11    TRUE
## # ... with 12,023 more rows
…
